<svg xmlns="http://www.w3.org/2000/svg" xmlns:xlink="http://www.w3.org/1999/xlink" version="1.1" style="" xml:space="preserve" width="588" height="133"><rect id="backgroundrect" width="100%" height="100%" x="0" y="0" fill="none" stroke="none"/>
<style type="text/css">
	.st0{fill:#FFFFFF;}
</style>


<g class="currentLayer" style=""><title>Layer 1</title><g id="Camada_1_1_">
</g><g id="grade" class="">
	<g id="svg_1">
		<g id="svg_2">
			<path class="st0" d="M354.9329498291016,127.86589596271514 c-21.7,0 -42,-11.7 -52.8,-30.5 c-1.7000000000000002,-2.9 -0.7000000000000001,-6.7 2.2,-8.4 c2.9,-1.7000000000000002 6.7,-0.7000000000000001 8.4,2.2 c8.7,15 24.9,24.4 42.2,24.4 c12.5,0 24.4,-4.7 33.5,-13.3 c2.5,-2.3 6.3,-2.2 8.7,0.2 c2.3,2.5 2.2,6.3 -0.2,8.7 C385.4329498291016,121.96589596271515 370.53294982910154,127.86589596271514 354.9329498291016,127.86589596271514 z" id="svg_3"/>
		</g>
		<path class="st0" d="M275.53294982910154,33.66589596271515 h36.7 c3.4,0 6.1,2.7 6.1,6.1 l0,0 c0,3.4 -2.7,6.1 -6.1,6.1 H275.53294982910154 c-3.4,0 -6.1,-2.7 -6.1,-6.1 l0,0 C269.4329498291016,36.46589596271515 272.13294982910156,33.66589596271515 275.53294982910154,33.66589596271515 z" id="svg_4"/>
		<path class="st0" d="M397.63294982910156,23.26589596271515 c-11.1,-10.8 -25.6,-17 -41,-17.4 c-0.2,0 -0.5,0 -0.7000000000000001,0 h-1 c0,0 0,0 0,0 h0 H259.83294982910155 c-3.4,0 -6.1,2.7 -6.1,6.1 s2.7,6.1 6.1,6.1 h95.1 c12.8,0 25,5 34.1,13.9 c1.2,1.2 2.7,1.8 4.3,1.8 c1.6,0 3.2,-0.6000000000000001 4.4,-1.8 C400.03294982910154,29.56589596271515 400.03294982910154,25.665895962715148 397.63294982910156,23.26589596271515 z" id="svg_5"/>
		<path class="st0" d="M290.9329498291016,61.065895962715146 H306.13294982910156 c3.4,0 6.1,2.7 6.1,6.1 l0,0 c0,3.4 -2.7,6.1 -6.1,6.1 H290.9329498291016 c-3.4,0 -6.1,-2.7 -6.1,-6.1 l0,0 C284.83294982910155,63.76589596271515 287.53294982910154,61.065895962715146 290.9329498291016,61.065895962715146 z" id="svg_6"/>
		<path class="st0" d="M376.53294982910154,71.06589596271515 c-1.4,-2.3 -3.7,-4.3 -6.9,-5.9 c-3,-1.5 -7,-2.7 -12.2,-3.9 c-3.3,-0.7000000000000001 -5.8,-1.5 -7.5,-2.2 c-1.8,-0.8 -2.7,-1.6 -3.1,-2.1 C346.33294982910155,56.36589596271515 346.13294982910156,55.46589596271515 346.13294982910156,54.26589596271515 c0,-2 0.7000000000000001,-3.5 2.3,-4.7 c1.7000000000000002,-1.3 4.2,-2 7.2,-2 c2.5,0 4.5,0.30000000000000004 6.1,1 c1.7000000000000002,0.7000000000000001 3.6,1.7000000000000002 5.5,3 c2.2,1.6 3.8,2.3 5.2,2.3 c1.4,0 2.7,-0.6000000000000001 3.7,-1.8 c0.9,-1.1 1.4,-2.4 1.4,-4 c0,-2.7 -1.6,-5.2 -4.7,-7.5 c-2.3,-1.6 -4.9,-2.8 -7.8,-3.7 c-2.9,-0.9 -5.9,-1.3 -9,-1.3 c-4.3,0 -8.2,0.8 -11.6,2.4 c-3.5,1.6 -6.3,3.8 -8.3,6.7 c-2,2.9 -3.1,6.2 -3.1,10 c0,4.9 1.7000000000000002,8.8 5,11.6 c3.1,2.7 8,4.8 15,6.3 c3.7,0.8 6.6,1.6 8.5,2.4 c2.1,0.8 3,1.6 3.4,2.1 c0.5,0.6000000000000001 0.8,1.5 0.8,2.7 c0,2 -0.8,3.4 -2.4,4.5 c-1.9,1.2 -4.7,1.8 -8.2,1.8 c-3,0 -5.5,-0.4 -7.5,-1.1 c-2,-0.7000000000000001 -4.1,-1.8 -6.2,-3.1 c-2.1,-1.4 -3.7,-2 -5,-2 c-1.5,0 -2.8,0.6000000000000001 -3.8,1.7000000000000002 c-0.9,1.1 -1.4,2.4 -1.4,3.9 c0,1.6 0.4,3 1.2,4.2 c0.7000000000000001,1 1.8,2 3.4,3.1 l0.1,0 c2.5,1.6 5.5,2.9 8.8,3.8 c3.3,0.9 6.7,1.3 10.3,1.3 c6.9,0 12.6,-1.6 16.9,-4.8 c4.5,-3.4 6.8,-7.9 6.8,-13.4 C378.63294982910156,76.36589596271514 377.9329498291016,73.46589596271515 376.53294982910154,71.06589596271515 z" id="svg_7"/>
		<path class="st0" d="M433.13294982910156,40.66589596271515 c-1.1,-1.2 -2.6,-1.7000000000000002 -4.4,-1.8 c0,0 0,0 0,0 c-1.8,0 -3.3,0.6000000000000001 -4.4,1.7000000000000002 c-1.1,1.1 -1.7000000000000002,2.6 -1.7000000000000002,4.4 l-0.1,25.8 c0,4.3 -1.2,7.7 -3.7,10.2 c-2.4,2.5 -5.5,3.7 -9.4,3.7 c0,0 -0.1,0 -0.1,0 c-3.4,0 -5.8,-0.9 -7.2,-2.6 c-1.5,-1.8 -2.3,-4.8 -2.2,-8.9 l0.2,-28.4 c0,-1.7000000000000002 -0.5,-3.2 -1.6,-4.3 c-1.1,-1.2 -2.6,-1.7000000000000002 -4.4,-1.8 c-1.8,0 -3.3,0.6000000000000001 -4.5,1.7000000000000002 c-1.1,1.1 -1.7000000000000002,2.6 -1.7000000000000002,4.4 l-0.2,28.6 c0,7.1 1.6,12.6 5,16.4 c3.4,3.8 8.5,5.8 15.1,5.8 c0,0 0.1,0 0.1,0 c3.9,0 7.5,-0.9 10.6,-2.6 c1.5,-0.8 2.9,-1.8 4.1,-3 c0.1,1.5 0.6000000000000001,2.8 1.6,3.8 c1.1,1.1 2.5,1.7000000000000002 4.3,1.7000000000000002 c0,0 0,0 0.1,0 c1.8,0 3.3,-0.6000000000000001 4.4,-1.7000000000000002 c1.1,-1.1 1.6,-2.5 1.6,-4.2 l0.30000000000000004,-44.5 C434.7329498291016,43.26589596271515 434.2329498291016,41.86589596271515 433.13294982910156,40.66589596271515 L433.13294982910156,40.66589596271515 z" id="svg_8"/>
		<path class="st0" d="M481.03294982910154,42.76589596271515 L481.03294982910154,42.76589596271515 c-3.7,-2.5 -8.1,-3.7 -12.9,-3.7 c-4.3,0 -8.2,0.9 -11.4,2.8 c-1.5,0.9 -2.8,1.9 -4,3.1 c0,-1.6 -0.6000000000000001,-3 -1.6,-4.1 c-1.1,-1.2 -2.6,-1.7000000000000002 -4.4,-1.8 c0,0 0,0 0,0 c-1.8,0 -3.3,0.6000000000000001 -4.4,1.7000000000000002 c-1.1,1.1 -1.7000000000000002,2.6 -1.7000000000000002,4.4 l-0.4,63.5 c0,1.7000000000000002 0.6000000000000001,3.1 1.7000000000000002,4.3 c1.1,1.1 2.6,1.7000000000000002 4.5,1.7000000000000002 c0,0 0,0 0.1,0 c1.8,0 3.3,-0.5 4.4,-1.6 c1.1,-1.1 1.7000000000000002,-2.5 1.7000000000000002,-4.3 l0.1,-18.8 c1.2,1.2 2.5,2.3 4,3.2 c3.2,1.9 7.1,2.9 11.4,3 c0.1,0 0.1,0 0.2,0 c4.8,0 9.1,-1.2 12.8,-3.5 c3.7,-2.3 6.6,-5.7 8.7,-9.9 c2,-4.2 3.1,-9.1 3.1,-14.7 c0,-5.6 -1,-10.6 -2.9,-14.9 C487.63294982910156,48.66589596271515 484.7329498291016,45.16589596271515 481.03294982910154,42.76589596271515 zM476.33294982910155,80.86589596271514 c-2.4,2.9 -5.7,4.4 -10.2,4.3 c-4.4,0 -7.7,-1.5 -10.1,-4.5 c-2.4,-3.1 -3.6,-7.6 -3.6,-13.3 c0,-5.8 1.3,-10.2 3.7,-13.2 c2.3,-2.9 5.6,-4.3 10,-4.3 c0,0 0.1,0 0.1,0 c4.4,0 7.7,1.5 10.1,4.6 c2.4,3.1 3.7,7.6 3.6,13.4 C480.03294982910154,73.46589596271515 478.83294982910155,77.86589596271514 476.33294982910155,80.86589596271514 L476.33294982910155,80.86589596271514 z" id="svg_9"/>
		<path class="st0" d="M546.2329498291016,69.76589596271515 c0.9,-1 1.3,-2.4 1.3,-4.3 c0,-7.9 -2.1,-14.3 -6.3,-19 c-4.3,-4.8 -10,-7.2 -17.2,-7.2 c-5,0 -9.6,1.2 -13.6,3.6 c-4,2.4 -7.1,5.8 -9.3,10.1 c-2.2,4.3 -3.3,9.2 -3.3,14.8 c0,8.7 2.4,15.7 7.3,20.8 c4.9,5.1 11.7,7.7 20.1,7.7 c0.1,0 0.1,0 0.2,0 c2.8,0 5.6,-0.4 8.5,-1.1 c3,-0.8 5.8,-1.9 8.5,-3.5 c3.1,-1.8 4.6,-4 4.6,-6.4 c0,-1.4 -0.4,-2.7 -1.3,-3.7 c-0.9,-1 -2.1,-1.6 -3.4,-1.6 c0,0 0,0 0,0 c-0.7000000000000001,0 -1.8,0.2 -4.6,1.8 c-2.2,1.2 -4.2,2.2 -6.1,2.8 c-1.7000000000000002,0.6000000000000001 -3.8,1 -6.3,1 c-0.1,0 -0.1,0 -0.2,0 c-9.3,-0.1 -14.1,-4.7 -15.1,-14.5 l31.9,0.2 C543.9329498291015,71.36589596271514 545.3329498291016,70.86589596271514 546.2329498291016,69.76589596271515 zM510.63294982910156,61.96589596271515 c0.7000000000000001,-3.7 2,-6.6 4.1,-8.7 c2.4,-2.4 5.5,-3.6 9.5,-3.6 c3.9,0 6.8,1.2 8.9,3.6 c1.8,2.1 2.9,5.1 3.3,8.9 L510.63294982910156,61.96589596271515 z" id="svg_10"/>
		<path class="st0" d="M585.1329498291016,41.46589596271515 c-1.1,-1 -2.7,-1.5 -4.8,-1.4 l-1.5,0.1 c-3.8,0.30000000000000004 -7.2,1.3 -10.1,3 c-1.3,0.8 -2.4,1.7000000000000002 -3.5,2.7 c0,-1.8 -0.6000000000000001,-3.2 -1.7000000000000002,-4.3 c-1.1,-1.1 -2.5,-1.6 -4.1,-1.6 c-1.7000000000000002,0 -3.1,0.5 -4.3,1.5 c-0.9,0.8 -1.9,2.1 -1.9,4.5 l-0.30000000000000004,44.4 c0,1.9 0.6000000000000001,3.4 1.8,4.5 c1.1,1.1 2.6,1.6 4.3,1.6 c0,0 0,0 0,0 c1.7000000000000002,0 3.1,-0.5 4.3,-1.5 c1.2,-1.1 1.8,-2.6 1.8,-4.5 l0.1,-25.6 c0,-3.5 1,-6.5 3.1,-9.1 c2,-2.5 5,-3.9 9.2,-4.2 l3.1,-0.30000000000000004 c2,-0.2 3.5,-0.7000000000000001 4.4,-1.8 c1,-1 1.5,-2.3 1.5,-3.9 C586.6329498291016,43.86589596271515 586.1329498291016,42.46589596271515 585.1329498291016,41.46589596271515 z" id="svg_11"/>
		<path class="st0" d="M615.0329498291015,87.96589596271515 l-2.9,-0.2 c-2.7,-0.2 -4.7,-1 -5.9,-2.3 c-1.3,-1.4 -1.9,-3.8 -1.9,-7.2 V53.065895962715146 h9.9 c1.6,0 2.9,-0.5 3.9,-1.4 c1.1,-0.9 1.6,-2.2 1.6,-3.8 c0,-1.6 -0.5,-2.9 -1.6,-3.9 c-1,-1 -2.4,-1.5 -4,-1.5 h-9.9 V32.46589596271515 c0,-1.9 -0.6000000000000001,-3.4 -1.7000000000000002,-4.5 c-1.1,-1.1 -2.6,-1.6 -4.3,-1.6 c-1.8,0 -3.3,0.5 -4.5,1.6 c-1.2,1.1 -1.7000000000000002,2.6 -1.7000000000000002,4.5 v10.1 v10.5 v24.7 c0,6.4 1.5,11.4 4.5,14.7 c3,3.3 7.6,5.2 13.7,5.7 l2.8,0.2 c0.4,0 0.8,0 1.1,0 c1.7000000000000002,0 3,-0.30000000000000004 4,-1 c1,-0.7000000000000001 2.1,-1.9 2.1,-4.2 C620.5329498291015,91.76589596271515 619.9329498291015,88.36589596271514 615.0329498291015,87.96589596271515 z" id="svg_12"/>
		<path class="st0" d="M637.5329498291015,47.66589596271515 c0,-1.9 -0.6000000000000001,-3.4 -1.7000000000000002,-4.5 c-1.1,-1.1 -2.6,-1.6 -4.3,-1.6 c-1.7000000000000002,0 -3.2,0.5 -4.4,1.6 c-1.2,1.1 -1.8,2.6 -1.8,4.5 v44.7 c0,1.9 0.6000000000000001,3.4 1.8,4.5 c1.2,1.1 2.6,1.6 4.4,1.6 c1.7000000000000002,0 3.2,-0.5 4.3,-1.5 c1.2,-1.1 1.8,-2.6 1.8,-4.5 L637.5329498291015,47.66589596271515 L637.5329498291015,47.66589596271515 z" id="svg_13"/>
		<path class="st0" d="M685.2329498291016,82.06589596271515 c-0.8,0 -1.7000000000000002,0.2 -2.6,0.7000000000000001 c-0.8,0.4 -1.6,0.8 -2.4,1.4 l0,0 c-1.7000000000000002,1.1 -3.3,2 -4.9,2.7 c-1.5,0.6000000000000001 -3.3,0.9 -5.5,0.9 c-4.6,0 -8.1,-1.4 -10.6,-4.4 c-2.6,-3 -3.9,-7.5 -3.9,-13.2 c0,-5.7 1.3,-10.2 3.9,-13.4 c2.5,-3.1 6,-4.6 10.6,-4.6 c2.1,0 3.9,0.30000000000000004 5.4,0.9 c1.6,0.7000000000000001 3.2,1.6 5,2.7 l0.2,0.1 c0,0 0.1,0.1 0.6000000000000001,0.4 c0.5,0.30000000000000004 1,0.7000000000000001 1.7000000000000002,1 c0.8,0.4 1.6,0.6000000000000001 2.4,0.6000000000000001 c1.4,0 2.6,-0.6000000000000001 3.5,-1.6 c0.8,-1 1.2,-2.2 1.2,-3.6 c0,-1.3 -0.4,-2.6 -1.1,-3.7 c-0.7000000000000001,-1 -1.7000000000000002,-2 -3.2,-3 c-2.1,-1.5 -4.7,-2.7 -7.5,-3.5 c-2.8,-0.8 -5.7,-1.2 -8.5,-1.2 c-5.2,0 -9.9,1.2 -13.9,3.7 c-4,2.4 -7.2,5.9 -9.4,10.3 c-2.2,4.3 -3.3,9.4 -3.3,14.9 c0,5.6 1.1,10.5 3.2,14.8 c2.2,4.3 5.3,7.7 9.3,10.1 c4,2.3 8.6,3.5 13.7,3.5 c3,0 6,-0.4 8.9,-1.3 c3,-0.9 5.5,-2 7.7,-3.5 c1.6,-1.1 2.6,-2 3.2,-3 c0.7000000000000001,-1 1.1,-2.2 1.1,-3.5 c0,-1.4 -0.4,-2.6 -1.2,-3.6 C687.6329498291016,82.66589596271515 686.5329498291015,82.06589596271515 685.2329498291016,82.06589596271515 z" id="svg_14"/>
		<path class="st0" d="M739.7329498291016,87.86589596271514 l-21.3,-18.6 l19.3,-17.3 c1.4,-1.3 2.1,-2.8 2.1,-4.5 c0,-1.5 -0.6000000000000001,-2.9 -1.7000000000000002,-4.1 c-1.1,-1.1 -2.5,-1.7000000000000002 -4.1,-1.7000000000000002 c-1.5,0 -2.9,0.6000000000000001 -4.1,1.8 l-22.2,20.3 V47.16589596271515 c0,-2.3 -1,-3.7 -1.8,-4.5 c-1.2,-1.1 -2.6,-1.6 -4.3,-1.6 c-1.7000000000000002,0 -3.2,0.5 -4.4,1.6 c-1.2,1.1 -1.8,2.6 -1.8,4.5 v45.2 c0,1.9 0.6000000000000001,3.4 1.8,4.5 c1.2,1.1 2.6,1.6 4.4,1.6 c1.7000000000000002,0 3.1,-0.5 4.3,-1.6 c1.2,-1.1 1.8,-2.6 1.8,-4.5 V75.46589596271515 l24.6,21.2 c1.3,1.1 2.7,1.7000000000000002 4.1,1.7000000000000002 c1.6,0 3,-0.6000000000000001 4,-1.7000000000000002 c1.1,-1.1 1.6,-2.5 1.6,-4 C742.0329498291015,90.96589596271515 741.2329498291016,89.36589596271514 739.7329498291016,87.86589596271514 z" id="svg_15"/>
		<path class="st0" d="M792.6329498291016,83.76589596271515 c-0.9,-1 -2.1,-1.6 -3.4,-1.6 c-0.7000000000000001,0 -1.8,0.2 -4.6,1.8 c-2.2,1.2 -4.2,2.2 -6.1,2.9 c-1.8,0.7000000000000001 -3.9,1 -6.4,1 c-9.3,0 -14.2,-4.6 -15.3,-14.5 h32.1 c1.8,0 3.2,-0.5 4.1,-1.6 c0.9,-1 1.3,-2.4 1.3,-4.3 c0,-7.9 -2.2,-14.3 -6.4,-19 c-4.3,-4.8 -10.1,-7.2 -17.4,-7.2 c-5.1,0 -9.6,1.2 -13.6,3.7 c-4,2.4 -7.1,5.9 -9.3,10.2 c-2.2,4.3 -3.3,9.3 -3.3,14.9 c0,8.8 2.5,15.8 7.5,20.9 c5,5.1 11.8,7.6 20.2,7.6 c2.8,0 5.8,-0.4 8.7,-1.2 c3,-0.8 5.8,-2 8.5,-3.5 c3.1,-1.8 4.6,-4 4.6,-6.5 C793.9329498291015,85.96589596271515 793.4329498291015,84.76589596271515 792.6329498291016,83.76589596271515 L792.6329498291016,83.76589596271515 zM757.1329498291016,64.26589596271515 c0.6000000000000001,-3.7 2,-6.7 4,-8.8 c2.4,-2.5 5.5,-3.7 9.5,-3.7 c3.9,0 6.9,1.2 9,3.6 c1.9,2.1 3,5.1 3.3,8.9 H757.1329498291016 z" id="svg_16"/>
		<path class="st0" d="M828.7329498291016,87.96589596271515 l-2.9,-0.2 c-2.7,-0.2 -4.7,-1 -5.9,-2.3 c-1.3,-1.4 -1.9,-3.8 -1.9,-7.2 V53.065895962715146 h9.9 c1.6,0 2.9,-0.5 3.9,-1.4 c1.1,-0.9 1.6,-2.2 1.6,-3.8 c0,-1.6 -0.5,-2.9 -1.6,-3.9 c-1,-1 -2.4,-1.5 -4,-1.5 h-9.9 V32.46589596271515 c0,-1.9 -0.6000000000000001,-3.4 -1.7000000000000002,-4.5 c-1.1,-1.1 -2.6,-1.6 -4.3,-1.6 c-1.8,0 -3.3,0.5 -4.5,1.6 c-1.2,1.1 -1.7000000000000002,2.6 -1.7000000000000002,4.5 v10.1 h-5.2 c-1.7000000000000002,0 -3.1,0.5 -4.1,1.5 c-1,1 -1.6,2.3 -1.6,3.9 c0,1.5 0.6000000000000001,2.8 1.6,3.8 c1,0.9 2.4,1.4 4,1.4 h5.2 v24.7 c0,6.4 1.5,11.4 4.5,14.7 c3,3.3 7.6,5.2 13.7,5.7 l2.8,0.2 c0.4,0 0.8,0 1.1,0 c1.7000000000000002,0 3,-0.30000000000000004 4,-1 c1,-0.7000000000000001 2.1,-1.9 2.1,-4.2 C834.1329498291016,91.76589596271515 833.6329498291016,88.36589596271514 828.7329498291016,87.96589596271515 z" id="svg_17"/>
	</g>
</g></g></svg>