<?xml version="1.0" encoding="iso-8859-1"?>
<!-- Generator: Adobe Illustrator 21.0.0, SVG Export Plug-In . SVG Version: 6.00 Build 0)  -->
<svg version="1.0" xmlns="http://www.w3.org/2000/svg" xmlns:xlink="http://www.w3.org/1999/xlink" x="0px" y="0px"
	 viewBox="0 0 175 130" style="enable-background:new 0 0 175 130;" xml:space="preserve">
<g id="Camada_1">
</g>
<g id="grade">
	<g>
		<path style="fill:#FFFFFF;" d="M71.442,38.478c0-3.314-2.686-6-6-6h-36c-3.314,0-6,2.686-6,6s2.686,6,6,6h36
			C68.755,44.478,71.442,41.792,71.442,38.478z"/>
		<path style="fill:#FFFFFF;" d="M65.442,65.301c0-3.314-2.686-6-6-6H44.525c-3.314,0-6,2.686-6,6c0,3.314,2.686,6,6,6h14.917
			C62.755,71.301,65.442,68.615,65.442,65.301z"/>
		<path style="fill:#FFFFFF;" d="M115.468,82.069c-1.84,1.196-4.56,1.803-8.083,1.803c-2.957,0-5.43-0.355-7.347-1.056
			c-2.002-0.731-4.056-1.741-6.107-3.001c-2.054-1.369-3.62-2.007-4.926-2.007c-1.469,0-2.744,0.579-3.686,1.674
			c-0.889,1.034-1.339,2.319-1.339,3.82c0,1.57,0.406,2.95,1.206,4.098c0.7,1.007,1.788,2.008,3.326,3.06l0.051,0.033
			c2.497,1.603,5.393,2.859,8.609,3.734c3.187,0.867,6.586,1.306,10.104,1.306c6.762,0,12.325-1.591,16.535-4.729
			c4.414-3.29,6.652-7.703,6.652-13.117c0-3.377-0.692-6.245-2.058-8.526c-1.375-2.29-3.635-4.222-6.72-5.742
			c-2.906-1.432-6.829-2.696-12-3.866c-3.206-0.714-5.674-1.447-7.337-2.178c-1.809-0.795-2.636-1.552-3.01-2.045
			c-0.473-0.625-0.713-1.527-0.713-2.682c0-1.948,0.723-3.403,2.276-4.577c1.706-1.29,4.071-1.943,7.032-1.943
			c2.419,0,4.443,0.327,6.013,0.971c1.684,0.692,3.505,1.679,5.411,2.933c2.137,1.55,3.757,2.272,5.097,2.272
			c1.394,0,2.647-0.596,3.627-1.725c0.914-1.056,1.397-2.399,1.397-3.881c0-2.667-1.547-5.14-4.629-7.374
			c-2.218-1.542-4.79-2.752-7.646-3.596c-2.838-0.837-5.81-1.262-8.833-1.262c-4.211,0-8.048,0.78-11.403,2.318
			c-3.42,1.57-6.148,3.766-8.106,6.529c-2.005,2.83-3.021,6.121-3.021,9.783c0,4.756,1.647,8.59,4.894,11.394
			c3.062,2.648,7.865,4.67,14.691,6.181c3.674,0.799,6.473,1.578,8.322,2.316c2.019,0.806,2.911,1.564,3.303,2.056
			c0.496,0.626,0.738,1.491,0.738,2.644C117.787,79.649,117.05,81.041,115.468,82.069z"/>
		<path style="fill:#FFFFFF;" d="M167.019,65.001c0-32.407-25.916-58.856-58.109-59.756c-0.226-0.026-0.455-0.043-0.688-0.043
			h-0.984c-0.006,0-0.011,0-0.017,0v0H13.981c-3.314,0-6,2.686-6,6s2.686,6,6,6h93.256c26.348,0.009,47.781,21.448,47.781,47.798
			c0,20.573-13.066,38.152-31.336,44.875c-0.027,0.01-0.053,0.02-0.079,0.029c-0.664,0.243-1.336,0.469-2.014,0.683
			c-0.095,0.03-0.189,0.061-0.284,0.09c-0.61,0.189-1.227,0.361-1.847,0.526c-0.157,0.041-0.313,0.085-0.47,0.125
			c-0.562,0.143-1.131,0.271-1.701,0.393c-0.211,0.045-0.42,0.094-0.632,0.137c-0.526,0.106-1.058,0.196-1.59,0.285
			c-0.25,0.042-0.5,0.088-0.751,0.126c-0.511,0.076-1.027,0.137-1.543,0.197c-0.27,0.031-0.538,0.069-0.808,0.096
			c-0.535,0.053-1.075,0.088-1.615,0.123c-0.25,0.016-0.498,0.041-0.749,0.053c-0.788,0.039-1.58,0.06-2.377,0.06
			c-17.019,0-32.888-9.164-41.415-23.917c-1.657-2.867-5.326-3.851-8.197-2.191c-2.868,1.658-3.85,5.328-2.192,8.197
			c10.664,18.45,30.515,29.911,51.804,29.911c0.995,0,1.987-0.027,2.975-0.075c0.316-0.016,0.627-0.046,0.941-0.067
			c0.673-0.044,1.346-0.088,2.015-0.154c0.343-0.034,0.681-0.082,1.022-0.122c0.641-0.074,1.281-0.15,1.918-0.244
			c0.32-0.048,0.636-0.106,0.954-0.159c0.66-0.109,1.32-0.223,1.975-0.354c0.27-0.054,0.536-0.116,0.805-0.174
			c0.707-0.152,1.412-0.312,2.112-0.488c0.203-0.051,0.403-0.108,0.605-0.161c0.769-0.203,1.534-0.419,2.294-0.653
			c0.124-0.038,0.247-0.079,0.371-0.118c0.84-0.265,1.674-0.547,2.501-0.848c0.039-0.014,0.079-0.029,0.119-0.044
			c7.521-2.759,14.476-7.02,20.44-12.65c0.117-0.111,0.203-0.24,0.31-0.358C159.929,97.24,167.019,81.937,167.019,65.001z"/>
	</g>
</g>
</svg>
